# compile verilog/system verilog design source files
verilog xil_defaultlib  "../../../uart_ctrl.srcs/sources_1/new/uart_tx.v"
verilog xil_defaultlib  "../../../uart_ctrl.srcs/sources_1/new/uart_rx.v"
verilog xil_defaultlib  "../../../uart_ctrl.srcs/sources_1/new/baudrate_gen.v"
verilog xil_defaultlib  "../../../uart_ctrl.srcs/sources_1/new/uart_top.v"
verilog xil_defaultlib  "../../../uart_ctrl.srcs/sources_1/new/device_top.v"
verilog xil_defaultlib  "../../../uart_ctrl.srcs/sim_1/new/uart_tb.v"
verilog xil_defaultlib  "../../../uart_ctrl.srcs/sim_1/new/device_tb.v"

# compile glbl module
verilog xil_defaultlib "glbl.v"

# Do not sort compile order
nosort
